\relax 
\providecommand\hyper@newdestlabel[2]{}
\providecommand\HyperFirstAtBeginDocument{\AtBeginDocument}
\HyperFirstAtBeginDocument{\ifx\hyper@anchor\@undefined
\global\let\oldcontentsline\contentsline
\gdef\contentsline#1#2#3#4{\oldcontentsline{#1}{#2}{#3}}
\global\let\oldnewlabel\newlabel
\gdef\newlabel#1#2{\newlabelxx{#1}#2}
\gdef\newlabelxx#1#2#3#4#5#6{\oldnewlabel{#1}{{#2}{#3}}}
\AtEndDocument{\ifx\hyper@anchor\@undefined
\let\contentsline\oldcontentsline
\let\newlabel\oldnewlabel
\fi}
\fi}
\global\let\hyper@last\relax 
\gdef\HyperFirstAtBeginDocument#1{#1}
\providecommand\HyField@AuxAddToFields[1]{}
\providecommand\HyField@AuxAddToCoFields[2]{}
\@writefile{toc}{\contentsline {section}{\numberline {1}Introduction}{}{section.1}\protected@file@percent }
\@writefile{toc}{\contentsline {section}{\numberline {2}Content}{}{section.2}\protected@file@percent }
\@writefile{toc}{\contentsline {subsection}{\numberline {2.1}Faktorisasi $LU$ tridiagonal}{}{subsection.2.1}\protected@file@percent }
\@writefile{toc}{\contentsline {subsection}{\numberline {2.2}Faktorisasi $LU$ tridiagonal dengan \textit  {partial pivoting}}{}{subsection.2.2}\protected@file@percent }
\@writefile{toc}{\contentsline {subsection}{\numberline {2.3}Faktorisasi \textit  {Cholesky} tridiagonal}{}{subsection.2.3}\protected@file@percent }
\@writefile{toc}{\contentsline {subsection}{\numberline {2.4}Perbandingan Kompleksitas}{}{subsection.2.4}\protected@file@percent }
\@writefile{toc}{\contentsline {subsection}{\numberline {2.5}Analisis \textit  {Error}}{}{subsection.2.5}\protected@file@percent }
\@writefile{toc}{\contentsline {subsection}{\numberline {2.6}Tambahan}{}{subsection.2.6}\protected@file@percent }
\@writefile{toc}{\contentsline {section}{\numberline {3}Conclusion}{}{section.3}\protected@file@percent }
\@writefile{toc}{\contentsline {section}{\numberline {4}References}{}{section.4}\protected@file@percent }
