\BOOKMARK [1][-]{section.1}{Introduction}{}% 1
\BOOKMARK [1][-]{section.2}{Content}{}% 2
\BOOKMARK [2][-]{subsection.2.1}{Faktorisasi LU tridiagonal}{section.2}% 3
\BOOKMARK [2][-]{subsection.2.2}{Faktorisasi LU tridiagonal dengan partial pivoting}{section.2}% 4
\BOOKMARK [2][-]{subsection.2.3}{Faktorisasi Cholesky tridiagonal}{section.2}% 5
\BOOKMARK [2][-]{subsection.2.4}{Perbandingan Kompleksitas}{section.2}% 6
\BOOKMARK [2][-]{subsection.2.5}{Analisis Error}{section.2}% 7
\BOOKMARK [2][-]{subsection.2.6}{Tambahan}{section.2}% 8
\BOOKMARK [1][-]{section.3}{Conclusion}{}% 9
\BOOKMARK [1][-]{section.4}{References}{}% 10
